{
    "albums": {
      "href": "https://api.spotify.com/v1/browse/new-releases?offset=0&limit=3",
      "items": [
        {
          "album_type": "single",
          "artists": [
            {
              "external_urls": {
                "spotify": "https://open.spotify.com/artist/64M6ah0SkkRsnPGtGiRAbb"
              },
              "href": "https://api.spotify.com/v1/artists/64M6ah0SkkRsnPGtGiRAbb",
              "id": "64M6ah0SkkRsnPGtGiRAbb",
              "name": "Bebe Rexha",
              "type": "artist",
              "uri": "spotify:artist:64M6ah0SkkRsnPGtGiRAbb"
            },
            {
              "external_urls": {
                "spotify": "https://open.spotify.com/artist/5cj0lLjcoR7YOSnhnX0Po5"
              },
              "href": "https://api.spotify.com/v1/artists/5cj0lLjcoR7YOSnhnX0Po5",
              "id": "5cj0lLjcoR7YOSnhnX0Po5",
              "name": "Doja Cat",
              "type": "artist",
              "uri": "spotify:artist:5cj0lLjcoR7YOSnhnX0Po5"
            }
          ],
          "available_markets": [
            "AD",
            "AE",
            "AL",
            "AR",
            "AT",
            "AU",
            "BA",
            "BE",
            "BG",
            "BH",
            "BO",
            "BR",
            "BY",
            "CA",
            "CH",
            "CL",
            "CO",
            "CR",
            "CY",
            "CZ",
            "DE",
            "DK",
            "DO",
            "DZ",
            "EC",
            "EE",
            "EG",
            "ES",
            "FI",
            "FR",
            "GB",
            "GR",
            "GT",
            "HK",
            "HN",
            "HR",
            "HU",
            "ID",
            "IE",
            "IL",
            "IN",
            "IS",
            "IT",
            "JO",
            "JP",
            "KW",
            "KZ",
            "LB",
            "LI",
            "LT",
            "LU",
            "LV",
            "MA",
            "MC",
            "MD",
            "ME",
            "MK",
            "MT",
            "MX",
            "MY",
            "NI",
            "NL",
            "NO",
            "NZ",
            "OM",
            "PA",
            "PE",
            "PH",
            "PL",
            "PS",
            "PT",
            "PY",
            "QA",
            "RO",
            "RS",
            "RU",
            "SA",
            "SE",
            "SG",
            "SI",
            "SK",
            "SV",
            "TH",
            "TN",
            "TR",
            "TW",
            "UA",
            "US",
            "UY",
            "VN",
            "XK",
            "ZA"
          ],
          "external_urls": {
            "spotify": "https://open.spotify.com/album/2N367tN1eIXrHNVe86aVy4"
          },
          "href": "https://api.spotify.com/v1/albums/2N367tN1eIXrHNVe86aVy4",
          "id": "2N367tN1eIXrHNVe86aVy4",
          "images": [
            {
              "height": 640,
              "url": "https://i.scdn.co/image/ab67616d0000b273be46722d1f07cf9e3697c472",
              "width": 640
            },
            {
              "height": 300,
              "url": "https://i.scdn.co/image/ab67616d00001e02be46722d1f07cf9e3697c472",
              "width": 300
            },
            {
              "height": 64,
              "url": "https://i.scdn.co/image/ab67616d00004851be46722d1f07cf9e3697c472",
              "width": 64
            }
          ],
          "name": "Baby, I'm Jealous (feat. Doja Cat)",
          "release_date": "2020-10-09",
          "release_date_precision": "day",
          "total_tracks": 1,
          "type": "album",
          "uri": "spotify:album:2N367tN1eIXrHNVe86aVy4"
        },
        {
          "album_type": "single",
          "artists": [
            {
              "external_urls": {
                "spotify": "https://open.spotify.com/artist/0Y5tJX1MQlPlqiwlOH1tJY"
              },
              "href": "https://api.spotify.com/v1/artists/0Y5tJX1MQlPlqiwlOH1tJY",
              "id": "0Y5tJX1MQlPlqiwlOH1tJY",
              "name": "Travis Scott",
              "type": "artist",
              "uri": "spotify:artist:0Y5tJX1MQlPlqiwlOH1tJY"
            },
            {
              "external_urls": {
                "spotify": "https://open.spotify.com/artist/1RyvyyTE3xzB2ZywiAwp0i"
              },
              "href": "https://api.spotify.com/v1/artists/1RyvyyTE3xzB2ZywiAwp0i",
              "id": "1RyvyyTE3xzB2ZywiAwp0i",
              "name": "Future",
              "type": "artist",
              "uri": "spotify:artist:1RyvyyTE3xzB2ZywiAwp0i"
            },
            {
              "external_urls": {
                "spotify": "https://open.spotify.com/artist/50co4Is1HCEo8bhOyUWKpn"
              },
              "href": "https://api.spotify.com/v1/artists/50co4Is1HCEo8bhOyUWKpn",
              "id": "50co4Is1HCEo8bhOyUWKpn",
              "name": "Young Thug",
              "type": "artist",
              "uri": "spotify:artist:50co4Is1HCEo8bhOyUWKpn"
            }
          ],
          "available_markets": [
            "AD",
            "AE",
            "AL",
            "AR",
            "AT",
            "AU",
            "BA",
            "BE",
            "BG",
            "BH",
            "BO",
            "BR",
            "BY",
            "CA",
            "CH",
            "CL",
            "CO",
            "CR",
            "CY",
            "CZ",
            "DE",
            "DK",
            "DO",
            "DZ",
            "EC",
            "EE",
            "EG",
            "ES",
            "FI",
            "FR",
            "GB",
            "GR",
            "GT",
            "HK",
            "HN",
            "HR",
            "HU",
            "ID",
            "IE",
            "IL",
            "IN",
            "IS",
            "IT",
            "JO",
            "JP",
            "KW",
            "KZ",
            "LB",
            "LI",
            "LT",
            "LU",
            "LV",
            "MA",
            "MC",
            "MD",
            "ME",
            "MK",
            "MT",
            "MX",
            "MY",
            "NI",
            "NL",
            "NO",
            "NZ",
            "OM",
            "PA",
            "PE",
            "PH",
            "PL",
            "PS",
            "PT",
            "PY",
            "QA",
            "RO",
            "RS",
            "RU",
            "SA",
            "SE",
            "SG",
            "SI",
            "SK",
            "SV",
            "TH",
            "TN",
            "TR",
            "TW",
            "UA",
            "US",
            "UY",
            "VN",
            "XK",
            "ZA"
          ],
          "external_urls": {
            "spotify": "https://open.spotify.com/album/6k3hqPsGKPCSyBmmvCXd7B"
          },
          "href": "https://api.spotify.com/v1/albums/6k3hqPsGKPCSyBmmvCXd7B",
          "id": "6k3hqPsGKPCSyBmmvCXd7B",
          "images": [
            {
              "height": 640,
              "url": "https://i.scdn.co/image/ab67616d0000b27387d2b3794f4e86af5e774b1b",
              "width": 640
            },
            {
              "height": 300,
              "url": "https://i.scdn.co/image/ab67616d00001e0287d2b3794f4e86af5e774b1b",
              "width": 300
            },
            {
              "height": 64,
              "url": "https://i.scdn.co/image/ab67616d0000485187d2b3794f4e86af5e774b1b",
              "width": 64
            }
          ],
          "name": "FRANCHISE (feat. Future, Young Thug & M.I.A.) [REMIX]",
          "release_date": "2020-10-07",
          "release_date_precision": "day",
          "total_tracks": 2,
          "type": "album",
          "uri": "spotify:album:6k3hqPsGKPCSyBmmvCXd7B"
        },
        {
          "album_type": "single",
          "artists": [
            {
              "external_urls": {
                "spotify": "https://open.spotify.com/artist/1o2NpYGqHiCq7FoiYdyd1x"
              },
              "href": "https://api.spotify.com/v1/artists/1o2NpYGqHiCq7FoiYdyd1x",
              "id": "1o2NpYGqHiCq7FoiYdyd1x",
              "name": "Bea Miller",
              "type": "artist",
              "uri": "spotify:artist:1o2NpYGqHiCq7FoiYdyd1x"
            }
          ],
          "available_markets": [
            "AD",
            "AE",
            "AL",
            "AR",
            "AT",
            "AU",
            "BA",
            "BE",
            "BG",
            "BH",
            "BO",
            "BR",
            "BY",
            "CA",
            "CH",
            "CL",
            "CO",
            "CR",
            "CY",
            "CZ",
            "DE",
            "DK",
            "DO",
            "DZ",
            "EC",
            "EE",
            "EG",
            "ES",
            "FI",
            "FR",
            "GB",
            "GR",
            "GT",
            "HK",
            "HN",
            "HR",
            "HU",
            "ID",
            "IE",
            "IL",
            "IN",
            "IS",
            "IT",
            "JO",
            "JP",
            "KW",
            "KZ",
            "LB",
            "LI",
            "LT",
            "LU",
            "LV",
            "MA",
            "MC",
            "MD",
            "ME",
            "MK",
            "MT",
            "MX",
            "MY",
            "NI",
            "NL",
            "NO",
            "NZ",
            "OM",
            "PA",
            "PE",
            "PH",
            "PL",
            "PS",
            "PT",
            "PY",
            "QA",
            "RO",
            "RS",
            "RU",
            "SA",
            "SE",
            "SG",
            "SI",
            "SK",
            "SV",
            "TH",
            "TN",
            "TR",
            "TW",
            "UA",
            "US",
            "UY",
            "VN",
            "XK",
            "ZA"
          ],
          "external_urls": {
            "spotify": "https://open.spotify.com/album/27HcSfqPn8Vrdy3Kjp0Or0"
          },
          "href": "https://api.spotify.com/v1/albums/27HcSfqPn8Vrdy3Kjp0Or0",
          "id": "27HcSfqPn8Vrdy3Kjp0Or0",
          "images": [
            {
              "height": 640,
              "url": "https://i.scdn.co/image/ab67616d0000b273d71a3324455830c165ef3c48",
              "width": 640
            },
            {
              "height": 300,
              "url": "https://i.scdn.co/image/ab67616d00001e02d71a3324455830c165ef3c48",
              "width": 300
            },
            {
              "height": 64,
              "url": "https://i.scdn.co/image/ab67616d00004851d71a3324455830c165ef3c48",
              "width": 64
            }
          ],
          "name": "wisdom teeth",
          "release_date": "2020-10-09",
          "release_date_precision": "day",
          "total_tracks": 1,
          "type": "album",
          "uri": "spotify:album:27HcSfqPn8Vrdy3Kjp0Or0"
        }
      ],
      "limit": 3,
      "next": "https://api.spotify.com/v1/browse/new-releases?offset=3&limit=3",
      "offset": 0,
      "previous": null,
      "total": 100
    }
  }